…
``` r
catchment_ndvi_ts <- archive::archive_read("nhdplus_cn_ndvi/18-California-NDVI.zip", file="18-California-NDVI.csv") |>
  read_csv() |>
  filter(ComID %in% flowline_table$comid) |>
  pivot_longer(cols=-ComID, names_to="modis_date", names_transform = lubridate::ymd, values_to="ndvi") |>
  rename(comid = ComID)
catchment_ndvi <- 
  catchment_ndvi_ts |> 
  group_by(comid) |>
  summarize(mean_ndvi = mean(ndvi)/10000)
catchment_ndvi
```

    ## # A tibble: 140,618 × 2
    ##     comid mean_ndvi
    ##     <dbl>     <dbl>
    ##  1 341095     0.287
    ##  2 341097     0.275
    ##  3 341099     0.322
    ##  4 341101     0.253
    ##  5 341103     0.186
    ##  6 341105     0.258
    ##  7 341107     0.287
    ##  8 341745     0.272
    ##  9 342395     0.225
    ## 10 342397     0.310
    ## # ℹ 140,608 more rows
…
