…
lm_si |> glance()
```

    ## # A tibble: 1 × 12
    ##   r.squared adj.r.squared sigma statistic  p.value    df logLik   AIC   BIC
    ##       <dbl>         <dbl> <dbl>     <dbl>    <dbl> <dbl>  <dbl> <dbl> <dbl>
    ## 1     0.636         0.620 0.129      38.5 1.05e-99    24   359. -667. -555.
    ## # ℹ 3 more variables: deviance <dbl>, df.residual <int>, nobs <int>

``` r
lm_si |> tidy()
```

    ## # A tibble: 25 × 5
    ##    term             estimate std.error statistic   p.value
    ##    <chr>               <dbl>     <dbl>     <dbl>     <dbl>
    ##  1 (Intercept)       0.439     0.00550    79.8   7.66e-297
    ##  2 flow_norm_cfs    -0.170     0.0440     -3.87  1.24e-  4
    ##  3 slope             0.105     0.114       0.917 3.60e-  1
    ##  4 sinuosity        -0.0169    0.00760    -2.23  2.64e-  2
    ##  5 erom_v_ma_fps    -0.133     0.123      -1.08  2.81e-  1
    ##  6 bf_depth_m        0.0283    0.231       0.123 9.03e-  1
    ##  7 bf_w_d_ratio      0.00731   0.0463      0.158 8.75e-  1
    ##  8 da_k_erodibility  0.427     0.246       1.73  8.34e-  2
    ##  9 da_avg_slope      0.0491    0.0238      2.07  3.92e-  2
    ## 10 mean_ndvi         0.0110    0.0116      0.949 3.43e-  1
    ## # ℹ 15 more rows
…
lm_sd |> glance()
```

    ## # A tibble: 1 × 12
    ##   r.squared adj.r.squared sigma statistic p.value    df logLik   AIC   BIC
    ##       <dbl>         <dbl> <dbl>     <dbl>   <dbl> <dbl>  <dbl> <dbl> <dbl>
    ## 1     0.965         0.962 0.450      428.       0    33  -325.  720.  871.
    ## # ℹ 3 more variables: deviance <dbl>, df.residual <int>, nobs <int>

``` r
lm_sd |> tidy()
```

    ## # A tibble: 34 × 5
    ##    term           estimate std.error statistic   p.value
    ##    <chr>             <dbl>     <dbl>     <dbl>     <dbl>
    ##  1 (Intercept)      0.833     0.0191   43.6    1.33e-175
    ##  2 flow_cfs       -22.9       9.02     -2.54   1.13e-  2
    ##  3 slope            2.39      0.896     2.66   7.99e-  3
    ##  4 da_area_sq_km  -25.9       6.89     -3.76   1.88e-  4
    ##  5 da_elev_mean    41.9      10.2       4.11   4.53e-  5
    ##  6 da_ppt_mean_mm  55.6       7.60      7.32   9.54e- 13
    ##  7 nf_bfl_dry_cfs  33.6       9.68      3.48   5.52e-  4
    ##  8 nf_bfl_wet_cfs  27.7       4.58      6.06   2.65e-  9
    ##  9 erom_q_ma_cfs   20.9       5.31      3.92   9.88e-  5
    ## 10 erom_v_ma_fps    0.0474    0.859     0.0552 9.56e-  1
    ## # ℹ 24 more rows
…
