…
lm_sd |> glance()
```

    ## # A tibble: 1 × 12
    ##   r.squared adj.r.squared sigma statistic   p.value    df logLik   AIC   BIC
    ##       <dbl>         <dbl> <dbl>     <dbl>     <dbl> <dbl>  <dbl> <dbl> <dbl>
    ## 1     0.432         0.418  31.0      32.2 2.26e-190    43 -2610. 5309. 5558.
    ## # ℹ 3 more variables: deviance <dbl>, df.residual <int>, nobs <int>

``` r
lm_sd |> tidy()
```

    ## # A tibble: 44 × 5
    ##    term             estimate std.error statistic p.value
    ##    <chr>               <dbl>     <dbl>     <dbl>   <dbl>
    ##  1 (Intercept)         7.68     0.0240   320.     0     
    ##  2 flow_cfs           73.9     52.6        1.40   0.160 
    ##  3 slope              43.5     21.3        2.04   0.0417
    ##  4 da_area_sq_km       1.15     2.44       0.472  0.637 
    ##  5 da_elev_mean        0.886    6.47       0.137  0.891 
    ##  6 da_ppt_mean_mm      3.76     6.47       0.581  0.561 
    ##  7 bf_depth_m          1.59     1.83       0.868  0.385 
    ##  8 bf_w_d_ratio        0.531    0.879      0.604  0.546 
    ##  9 da_k_erodibility    2.65     2.92       0.907  0.364 
    ## 10 da_avg_slope        1.03     4.57       0.226  0.821 
    ## # ℹ 34 more rows
…
lm_sd2 |> glance()
```

    ## # A tibble: 1 × 12
    ##   r.squared adj.r.squared sigma statistic p.value    df logLik   AIC   BIC
    ##       <dbl>         <dbl> <dbl>     <dbl>   <dbl> <dbl>  <dbl> <dbl> <dbl>
    ## 1     0.742         0.736  13.5      128.       0    41 -1061. 2207. 2445.
    ## # ℹ 3 more variables: deviance <dbl>, df.residual <int>, nobs <int>

``` r
lm_sd2 |> tidy()
```

    ## # A tibble: 42 × 5
    ##    term             estimate std.error statistic     p.value
    ##    <chr>               <dbl>     <dbl>     <dbl>       <dbl>
    ##  1 (Intercept)         9.97     0.0104   954.    0          
    ##  2 flow_cfs           78.4     22.4        3.50  0.000474   
    ##  3 slope             -17.8      9.17      -1.94  0.0523     
    ##  4 da_area_sq_km      -2.41     1.06      -2.27  0.0231     
    ##  5 da_elev_mean        2.75     2.81       0.982 0.326      
    ##  6 da_ppt_mean_mm      1.30     2.81       0.462 0.644      
    ##  7 bf_depth_m          2.46     0.798      3.08  0.00207    
    ##  8 bf_w_d_ratio        0.805    0.383      2.10  0.0356     
    ##  9 da_k_erodibility    5.78     1.13       5.11  0.000000348
    ## 10 da_avg_slope        2.20     1.98       1.11  0.267      
    ## # ℹ 32 more rows
…
lm_si |> glance()
```

    ## # A tibble: 1 × 12
    ##   r.squared adj.r.squared sigma statistic   p.value    df logLik    AIC    BIC
    ##       <dbl>         <dbl> <dbl>     <dbl>     <dbl> <dbl>  <dbl>  <dbl>  <dbl>
    ## 1     0.452         0.442  3.26      45.9 1.49e-212    33  1587. -3104. -2910.
    ## # ℹ 3 more variables: deviance <dbl>, df.residual <int>, nobs <int>

``` r
lm_si |> tidy()
```

    ## # A tibble: 34 × 5
    ##    term             estimate std.error statistic  p.value
    ##    <chr>               <dbl>     <dbl>     <dbl>    <dbl>
    ##  1 (Intercept)        0.138    0.00238    57.7   0       
    ##  2 flow_norm_cfs     -0.703    2.53       -0.277 0.782   
    ##  3 slope              0.108    0.0570      1.90  0.0576  
    ##  4 sinuosity          0.0299   0.0143      2.09  0.0369  
    ##  5 bf_depth_m         0.130    0.0596      2.18  0.0297  
    ##  6 bf_w_d_ratio       0.0601   0.0382      1.58  0.115   
    ##  7 da_k_erodibility  -0.347    0.171      -2.02  0.0432  
    ##  8 da_avg_slope      -0.168    0.102      -1.65  0.0986  
    ##  9 mean_ndvi          0.0664   0.0341      1.95  0.0513  
    ## 10 loc_bfi           -0.140    0.0421     -3.33  0.000886
    ## # ℹ 24 more rows
…
lm_si2 |> glance()
```

    ## # A tibble: 1 × 12
    ##   r.squared adj.r.squared sigma statistic   p.value    df logLik   AIC   BIC
    ##       <dbl>         <dbl> <dbl>     <dbl>     <dbl> <dbl>  <dbl> <dbl> <dbl>
    ## 1     0.475         0.466  33.9      53.6 1.04e-230    31 -2787. 5640. 5823.
    ## # ℹ 3 more variables: deviance <dbl>, df.residual <int>, nobs <int>

``` r
lm_si2 |> tidy()
```

    ## # A tibble: 32 × 5
    ##    term             estimate std.error statistic  p.value
    ##    <chr>               <dbl>     <dbl>     <dbl>    <dbl>
    ##  1 (Intercept)         6.61     0.0246   269.    0       
    ##  2 flow_norm_cfs      71.7     26.2        2.73  6.34e- 3
    ##  3 slope               0.830    0.535      1.55  1.21e- 1
    ##  4 sinuosity           0.716    0.149      4.81  1.63e- 6
    ##  5 bf_w_d_ratio        0.585    0.359      1.63  1.03e- 1
    ##  6 da_k_erodibility   -1.10     1.70      -0.645 5.19e- 1
    ##  7 da_avg_slope        1.68     1.06       1.59  1.13e- 1
    ##  8 mean_ndvi           0.908    0.352      2.58  9.93e- 3
    ##  9 loc_bfi            -1.83     0.369     -4.95  8.08e- 7
    ## 10 loc_pct_clay        3.22     0.482      6.68  3.14e-11
    ## # ℹ 22 more rows
…
    ## ✔ Saving 'wua_predicted' to 'data/wua_predicted.rda'
    ## • Document your data (see 'https://r-pkgs.org/data.html')

``` r
# to run the leaflet map: shiny::runApp(here::here("inst", "app"))

# hs_predictions <- predictions_export
# usethis::use_data(hs_predictions, overwrite = T)

td |> filter(str_detect(dataset,"Tuolumne River")) |>
  select(comid, flow_cfs) |> arrange(comid, flow_cfs)
```

    ## # A tibble: 77 × 2
    ##      comid flow_cfs
    ##      <dbl>    <dbl>
    ##  1 2823718      300
    ##  2 2823718      500
    ##  3 2823718      600
    ##  4 2823718      900
    ##  5 2823718     1100
    ##  6 2823718     3000
    ##  7 2823718     3200
    ##  8 2823718     4500
    ##  9 2823718     6000
    ## 10 2823718     7600
    ## # ℹ 67 more rows
…
